%!Adobe-FontList 1.20
%Locale:0xc0a

%BeginFont
Handler:DirectoryHandler
FontType:Invalid
OutlineFileName:D:\Interno\Canal de ventas\Font\rajdhani-bold.eot
FileModTime:1551882838
%EndFont

%BeginFont
Handler:DirectoryHandler
FontType:Type1
FontName:Rajdhani-Bold
FamilyName:Rajdhani
StyleName:Bold
FullName:Rajdhani Bold
MenuName:Rajdhani Bold
StyleBits:2
WritingScript:Roman
OutlineFileName:D:\Interno\Canal de ventas\Font\rajdhani-bold.otf
DataFormat:sfntData
UsesStandardEncoding:yes
isCFF:yes
hasSVG:no
VariableFontType:NonVariableFont
FileLength:469396
FileModTime:1551882836
WeightClass:700
WidthClass:5
AngleClass:0
NameArray:0,Mac,4,Rajdhani Bold
NameArray:0,Win,1,Rajdhani Bold
NameArray:0,Win,16,Rajdhani
%EndFont

%BeginFont
Handler:DirectoryHandler
FontType:TrueType
FontName:Rajdhani-Bold
FamilyName:Rajdhani
StyleName:Bold
FullName:Rajdhani Bold
MenuName:Rajdhani Bold
StyleBits:2
WritingScript:Roman
OutlineFileName:D:\Interno\Canal de ventas\Font\rajdhani-bold.ttf
DataFormat:sfntData
hasSVG:no
VariableFontType:NonVariableFont
FileLength:401028
FileModTime:1540392556
WeightClass:700
WidthClass:5
AngleClass:0
NameArray:0,Mac,4,Rajdhani Bold
NameArray:0,Win,1,Rajdhani Bold
NameArray:0,Win,16,Rajdhani
%EndFont

%BeginFont
Handler:DirectoryHandler
FontType:Invalid
OutlineFileName:D:\Interno\Canal de ventas\Font\rajdhani-bold.woff
FileModTime:1551882836
%EndFont

%BeginFont
Handler:DirectoryHandler
FontType:Invalid
OutlineFileName:D:\Interno\Canal de ventas\Font\rajdhani-bold.woff2
FileModTime:1551882838
%EndFont

%BeginFont
Handler:DirectoryHandler
FontType:Invalid
OutlineFileName:D:\Interno\Canal de ventas\Font\rajdhani-light.eot
FileModTime:1551882838
%EndFont

%BeginFont
Handler:DirectoryHandler
FontType:Type1
FontName:Rajdhani-Light
FamilyName:Rajdhani
StyleName:Light
FullName:Rajdhani Light
MenuName:Rajdhani Light
StyleBits:0
WritingScript:Roman
OutlineFileName:D:\Interno\Canal de ventas\Font\rajdhani-light.otf
DataFormat:sfntData
UsesStandardEncoding:yes
isCFF:yes
hasSVG:no
VariableFontType:NonVariableFont
FileLength:478752
FileModTime:1551882836
WeightClass:300
WidthClass:5
AngleClass:0
NameArray:0,Mac,4,Rajdhani Light
NameArray:0,Win,1,Rajdhani Light
NameArray:0,Win,16,Rajdhani
%EndFont

%BeginFont
Handler:DirectoryHandler
FontType:TrueType
FontName:Rajdhani-Light
FamilyName:Rajdhani
StyleName:Light
FullName:Rajdhani Light
MenuName:Rajdhani Light
StyleBits:0
WritingScript:Roman
OutlineFileName:D:\Interno\Canal de ventas\Font\rajdhani-light.ttf
DataFormat:sfntData
hasSVG:no
VariableFontType:NonVariableFont
FileLength:384236
FileModTime:1540392556
WeightClass:300
WidthClass:5
AngleClass:0
NameArray:0,Mac,4,Rajdhani Light
NameArray:0,Win,1,Rajdhani Light
NameArray:0,Win,16,Rajdhani
%EndFont

%BeginFont
Handler:DirectoryHandler
FontType:Invalid
OutlineFileName:D:\Interno\Canal de ventas\Font\rajdhani-light.woff
FileModTime:1551882836
%EndFont

%BeginFont
Handler:DirectoryHandler
FontType:Invalid
OutlineFileName:D:\Interno\Canal de ventas\Font\rajdhani-light.woff2
FileModTime:1551882838
%EndFont

%BeginFont
Handler:DirectoryHandler
FontType:Invalid
OutlineFileName:D:\Interno\Canal de ventas\Font\rajdhani-medium.eot
FileModTime:1551882838
%EndFont

%BeginFont
Handler:DirectoryHandler
FontType:Type1
FontName:Rajdhani-Medium
FamilyName:Rajdhani
StyleName:Medium
FullName:Rajdhani Medium
MenuName:Rajdhani Medium
StyleBits:0
WritingScript:Roman
OutlineFileName:D:\Interno\Canal de ventas\Font\rajdhani-medium.otf
DataFormat:sfntData
UsesStandardEncoding:yes
isCFF:yes
hasSVG:no
VariableFontType:NonVariableFont
FileLength:503036
FileModTime:1551882836
WeightClass:500
WidthClass:5
AngleClass:0
NameArray:0,Mac,4,Rajdhani Medium
NameArray:0,Win,1,Rajdhani Medium
NameArray:0,Win,16,Rajdhani
%EndFont

%BeginFont
Handler:DirectoryHandler
FontType:TrueType
FontName:Rajdhani-Medium
FamilyName:Rajdhani
StyleName:Medium
FullName:Rajdhani Medium
MenuName:Rajdhani Medium
StyleBits:0
WritingScript:Roman
OutlineFileName:D:\Interno\Canal de ventas\Font\rajdhani-medium.ttf
DataFormat:sfntData
hasSVG:no
VariableFontType:NonVariableFont
FileLength:384660
FileModTime:1540392556
WeightClass:500
WidthClass:5
AngleClass:0
NameArray:0,Mac,4,Rajdhani Medium
NameArray:0,Win,1,Rajdhani Medium
NameArray:0,Win,16,Rajdhani
%EndFont

%BeginFont
Handler:DirectoryHandler
FontType:Invalid
OutlineFileName:D:\Interno\Canal de ventas\Font\rajdhani-medium.woff
FileModTime:1551882836
%EndFont

%BeginFont
Handler:DirectoryHandler
FontType:Invalid
OutlineFileName:D:\Interno\Canal de ventas\Font\rajdhani-medium.woff2
FileModTime:1551882838
%EndFont

%BeginFont
Handler:DirectoryHandler
FontType:Invalid
OutlineFileName:D:\Interno\Canal de ventas\Font\rajdhani-regular.eot
FileModTime:1551882838
%EndFont

%BeginFont
Handler:DirectoryHandler
FontType:Type1
FontName:Rajdhani-Regular
FamilyName:Rajdhani
StyleName:Regular
FullName:Rajdhani
MenuName:Rajdhani
StyleBits:0
WritingScript:Roman
OutlineFileName:D:\Interno\Canal de ventas\Font\rajdhani-regular.otf
DataFormat:sfntData
UsesStandardEncoding:yes
isCFF:yes
hasSVG:no
VariableFontType:NonVariableFont
FileLength:489648
FileModTime:1551882836
WeightClass:400
WidthClass:5
AngleClass:0
NameArray:0,Mac,4,Rajdhani
NameArray:0,Win,1,Rajdhani
%EndFont

%BeginFont
Handler:DirectoryHandler
FontType:TrueType
FontName:Rajdhani-Regular
FamilyName:Rajdhani
StyleName:Regular
FullName:Rajdhani
MenuName:Rajdhani
StyleBits:0
WritingScript:Roman
OutlineFileName:D:\Interno\Canal de ventas\Font\rajdhani-regular.ttf
DataFormat:sfntData
hasSVG:no
VariableFontType:NonVariableFont
FileLength:377956
FileModTime:1540392556
WeightClass:400
WidthClass:5
AngleClass:0
NameArray:0,Mac,4,Rajdhani
NameArray:0,Win,1,Rajdhani
%EndFont

%BeginFont
Handler:DirectoryHandler
FontType:Invalid
OutlineFileName:D:\Interno\Canal de ventas\Font\rajdhani-regular.woff
FileModTime:1551882836
%EndFont

%BeginFont
Handler:DirectoryHandler
FontType:Invalid
OutlineFileName:D:\Interno\Canal de ventas\Font\rajdhani-regular.woff2
FileModTime:1551882838
%EndFont

